<?xml version="1.0" standalone="no"?>
<!DOCTYPE svg PUBLIC "-//W3C//DTD SVG 1.1//EN" "http://www.w3.org/Graphics/SVG/1.1/DTD/svg11.dtd" >
<svg xmlns="http://www.w3.org/2000/svg">
<metadata>Generated by IcoMoon</metadata>
<defs>
<font id="icomoon" horiz-adv-x="1024">
<font-face units-per-em="1024" ascent="960" descent="-64" />
<missing-glyph horiz-adv-x="1024" />
<glyph unicode="&#x20;" horiz-adv-x="512" d="" />
<glyph unicode="&#xe900;" glyph-name="dropdown-arrow" d="M213.99 313.557c0 6.773 3.387 10.159 6.773 13.546l30.479 30.479c3.387 3.387 10.159 6.773 13.546 6.773 6.773 0 10.159-3.387 13.546-6.773l233.667-233.667 233.667 233.667c3.387 3.387 10.159 6.773 13.546 6.773 6.773 0 10.159-3.387 13.546-6.773l30.479-30.479c3.387-3.387 6.773-10.159 6.773-13.546 0-6.773-3.387-10.159-6.773-13.546l-277.691-277.691c-3.387-3.387-10.159-6.773-13.546-6.773-6.773 0-10.159 3.387-13.546 6.773l-277.691 277.691c-3.387 3.387-6.773 6.773-6.773 13.546zM810.010 564.157c0-6.773-3.387-10.159-6.773-13.546l-30.479-30.479c-3.387-3.387-10.159-6.773-13.546-6.773-6.773 0-10.159 3.387-13.546 6.773l-233.667 233.667-233.667-233.667c-3.387-3.387-10.159-6.773-13.546-6.773s-10.159 3.387-13.546 6.773l-30.479 30.479c-3.387 3.387-6.773 10.159-6.773 13.546s3.387 10.159 6.773 13.546l277.691 277.691c3.387 3.387 6.773 6.773 13.546 6.773s10.159-3.387 13.546-6.773l277.691-277.691c3.387-3.387 6.773-6.773 6.773-13.546z" />
<glyph unicode="&#xe901;" glyph-name="download" d="M359.952 271.293c0 0 0 465.455 0 480.97 0 12.412 0 55.855 37.236 68.267 37.236 15.515 183.079 46.545 183.079 46.545l-52.752 27.927c0 0-142.739-34.133-164.461-37.236s-55.855-18.618-55.855-65.164c0-46.545 0-422.012 0-474.764 0-49.648 52.752-46.545 52.752-46.545zM688.873 665.378l108.606 27.927-145.842 152.048v-158.255c3.103-18.618 15.515-27.927 37.236-21.721zM484.073 919.827l-55.855 31.030c0 0-133.43-31.030-155.152-37.236-18.618-6.206-52.752-21.721-52.752-65.164s0-422.012 0-474.764 52.752-49.648 52.752-49.648 0 465.455 0 480.97c0 12.412 0 55.855 37.236 68.267 37.236 15.515 173.77 46.545 173.77 46.545zM701.285 634.348c-55.855-12.412-86.885 15.515-86.885 52.752 0 21.721 0 155.152 0 155.152s-117.915-24.824-164.461-37.236c-46.545-12.412-52.752-49.648-52.752-71.37s0-440.63 0-471.661c0-31.030 15.515-52.752 49.648-43.442s276.17 68.267 313.406 77.576c37.236 9.309 43.442 52.752 43.442 71.37s0 291.685 0 291.685-46.545-9.309-102.4-24.824zM645.43 190.615c-6.206-3.103-15.515-6.206-21.721-15.515l-83.782-124.121v155.152l-58.958-15.515v-155.152l-83.782 77.576c-6.206 6.206-12.412 6.206-21.721 6.206-6.206-3.103-15.515-6.206-21.721-15.515s-9.309-18.618-9.309-27.927c0-9.309 3.103-15.515 9.309-21.721v0l133.43-121.018c9.309-6.206 15.515-6.206 21.721-6.206 0 0 0 0 0 0s0 0 0 0c6.206 3.103 15.515 6.206 21.721 15.515l133.43 192.388c6.206 9.309 9.309 18.618 9.309 27.927s-3.103 15.515-9.309 21.721c-3.103 6.206-9.309 6.206-18.618 6.206z" />
<glyph unicode="&#xe902;" glyph-name="notification" d="M512-70.040c-282.376 0-512 229.624-512 508.897s229.624 508.897 512 508.897c282.376 0 512-229.624 512-508.897s-229.624-508.897-512-508.897zM512 863.972c-235.83 0-428.218-192.388-428.218-425.115s192.388-425.115 428.218-425.115c235.83 0 428.218 189.285 428.218 425.115 0 232.727-192.388 425.115-428.218 425.115zM480.97 345.766l-15.515 341.333c0 24.824 18.618 49.648 46.545 49.648 24.824 0 49.648-18.618 49.648-46.545 0 0 0-3.103 0-3.103l-15.515-341.333c0-18.618-15.515-31.030-34.133-31.030-18.618 3.103-31.030 15.515-31.030 31.030zM512 178.202c-12.412 0-21.721 6.206-31.030 12.412-3.103 3.103-6.206 9.309-9.309 12.412-3.103 6.206-3.103 9.309-3.103 15.515 0 12.412 6.206 21.721 12.412 31.030 15.515 15.515 43.442 15.515 58.958 0 3.103-3.103 3.103-3.103 6.206-6.206s3.103-6.206 3.103-6.206 3.103-6.206 3.103-9.309c0-3.103 0-6.206 0-9.309 0-12.412-3.103-21.721-12.412-31.030-6.206-3.103-15.515-9.309-27.927-9.309z" />
<glyph unicode="&#xe903;" glyph-name="enquiry" d="M422.012 451.269l-65.164 192.388c-3.103 9.309-12.412 15.515-21.721 15.515l-83.782-15.515c-3.103 0-9.309-3.103-12.412-6.206s-3.103-9.309 0-15.515l65.164-189.285c3.103-9.309 12.412-15.515 18.618-15.515l86.885 9.309c6.206 0 9.309 3.103 12.412 6.206 3.103 6.206 3.103 12.412 0 18.618zM328.921 590.905c-9.309 0-18.618 6.206-21.721 15.515s3.103 18.618 12.412 18.618c9.309 0 18.618-6.206 21.721-15.515s-3.103-18.618-12.412-18.618zM899.879 361.281v-170.667c0-27.927-15.515-46.545-55.855-52.752-6.206-34.133-49.648-176.873-285.479-204.8-176.873-21.721-313.406 21.721-319.612 55.855-46.545 0-114.812 6.206-114.812 46.545v130.327c0 46.545 18.618 89.988 46.545 121.018 27.927 34.133 62.061 58.958 99.297 77.576 3.103 3.103 6.206 3.103 12.412 6.206l83.782 34.133c68.267-40.339 145.842-179.976 198.594-285.479l-9.309 211.006-55.855 43.442 52.752 55.855 52.752-27.927-18.618-62.061 55.855-201.697c6.206 74.473 12.412 161.358 12.412 232.727 0 40.339-3.103 74.473-6.206 99.297l99.297 18.618c0 0 0 0 0 0s3.103 0 3.103 0c37.236 0 71.37-6.206 99.297-27.927 31.030-18.618 49.648-52.752 49.648-99.297zM341.333 674.687l-68.267-9.309c-24.824 170.667 89.988 276.17 229.624 285.479 124.121 9.309 214.109-62.061 207.903-189.285 0-18.618-3.103-58.958-6.206-65.164 0-6.206-9.309-3.103-9.309 6.206 0 0-6.206 93.091-68.267 86.885-58.958-6.206-124.121-3.103-155.152 3.103-12.412-18.618-31.030-43.442-46.545-52.752-40.339-24.824-31.030-83.782-31.030-83.782 0-9.309-12.412-12.412-15.515-3.103 0 0-3.103 15.515-15.515 18.618 0 0 0 0 0 0-6.206 3.103-12.412 3.103-15.515 3.103 0 0 0 0 0 0-3.103 0-3.103 0-6.206 0 0 0 0 0 0 0s0 0 0 0 0 0 0 0z" />
<glyph unicode="&#xe904;" glyph-name="chat" d="M422.012 330.251v-139.636l-121.018-124.121 31.030 152.048-238.933-58.958c0 0-93.091-27.927-93.091 62.061v415.806c0 0 0 83.782 77.576 102.4l660.945 167.564c0 0 74.473 18.618 74.473-52.752v-328.921l-297.891-74.473c-71.37-18.618-93.091-86.885-93.091-121.018zM1024 181.305v294.788c0 46.545-49.648 37.236-49.648 37.236l-446.836-114.812c-49.648-12.412-52.752-68.267-52.752-68.267v-279.273c0-62.061 62.061-43.442 62.061-43.442l161.358 40.339 173.77-80.679-68.267 105.503 183.079 46.545c40.339 9.309 37.236 62.061 37.236 62.061z" />
<glyph unicode="&#xe905;" glyph-name="share" d="M791.273 181.305c-46.545 0-86.885-24.824-108.606-58.958l-335.127 257.552c9.309 18.618 15.515 37.236 15.515 58.958 0 18.618-6.206 37.236-12.412 52.752l347.539 242.036c24.824-24.824 55.855-37.236 93.091-37.236 71.37 0 130.327 55.855 130.327 127.224s-58.958 127.224-130.327 127.224c-71.37 0-130.327-55.855-130.327-127.224 0-18.618 6.206-37.236 12.412-52.752l-350.642-242.036c-24.824 24.824-55.855 37.236-93.091 37.236-71.37 0-130.327-55.855-130.327-127.224s58.958-127.224 130.327-127.224c34.133 0 65.164 12.412 86.885 34.133l347.539-263.758c-3.103-9.309-3.103-18.618-3.103-27.927 0-71.37 58.958-127.224 130.327-127.224s130.327 55.855 130.327 127.224c-3.103 71.37-58.958 127.224-130.327 127.224z" />
<glyph unicode="&#xe906;" glyph-name="cross" d="M810.667 768q18.333 0 30.5-12.167t12.167-30.5q0-18-12.333-30.333l-268.667-268.333 268.667-268.333q12.333-12.333 12.333-30.333 0-18.333-12.167-30.5t-30.5-12.167q-18 0-30.333 12.333l-268.333 268.667-268.333-268.667q-12.333-12.333-30.333-12.333-18.333 0-30.5 12.167t-12.167 30.5q0 18 12.333 30.333l268.667 268.333-268.667 268.333q-12.333 12.333-12.333 30.333 0 18.333 12.167 30.5t30.5 12.167q18 0 30.333-12.333l268.333-268.667 268.333 268.667q12.333 12.333 30.333 12.333z" />
<glyph unicode="&#xe907;" glyph-name="chevron-with-circle-left" d="M578.662 625.869c-10.035 10.086-26.368 10.086-36.352 0l-143.718-146.688c-10.035-10.189-10.035-26.624 0-36.71l143.718-146.637c9.984-10.189 26.317-10.138 36.352 0 10.035 10.086 10.035 26.522 0 36.71l-117.862 128.256 117.862 128.307c10.035 10.138 10.035 26.522 0 36.762zM512 952.32c-271.462 0-491.52-220.058-491.52-491.52 0-271.514 220.058-491.52 491.52-491.52s491.52 220.006 491.52 491.52c0 271.462-220.058 491.52-491.52 491.52zM512 33.075c-236.288 0-427.725 191.488-427.725 427.725s191.437 427.725 427.725 427.725c236.186 0 427.725-191.488 427.725-427.725s-191.539-427.725-427.725-427.725z" />
<glyph unicode="&#xe908;" glyph-name="chevron-with-circle-right" d="M563.2 460.8l-117.862 128.307c-10.035 10.138-10.035 26.573 0 36.762 10.035 10.086 26.368 10.086 36.352 0l143.718-146.637c10.035-10.189 10.035-26.624 0-36.71l-143.718-146.637c-9.984-10.189-26.317-10.138-36.352 0-10.035 10.086-10.035 26.522 0 36.71l117.862 128.205zM512 952.32c271.462 0 491.52-220.058 491.52-491.52 0-271.514-220.058-491.52-491.52-491.52s-491.52 220.006-491.52 491.52c0 271.462 220.058 491.52 491.52 491.52zM512 33.075c236.186 0 427.725 191.488 427.725 427.725s-191.539 427.725-427.725 427.725c-236.288 0-427.725-191.488-427.725-427.725-0.051-236.237 191.437-427.725 427.725-427.725z" />
<glyph unicode="&#xe909;" glyph-name="controller-paus" d="M768 819.2h-102.4c-28.314 0-51.2-2.458-51.2-30.72v-655.36c0-28.262 22.886-30.72 51.2-30.72h102.4c28.314 0 51.2 2.458 51.2 30.72v655.36c0 28.262-22.886 30.72-51.2 30.72zM358.4 819.2h-102.4c-28.314 0-51.2-2.458-51.2-30.72v-655.36c0-28.262 22.886-30.72 51.2-30.72h102.4c28.314 0 51.2 2.458 51.2 30.72v655.36c0 28.262-22.886 30.72-51.2 30.72z" />
<glyph unicode="&#xe90a;" glyph-name="controller-play" d="M768 460.749c0-15.309-15.616-26.317-15.616-26.317l-438.323-271.514c-31.949-20.941-58.061-5.427-58.061 34.253v527.206c0 39.782 26.112 55.194 58.112 34.304l438.323-271.616c-0.051 0 15.565-11.008 15.565-26.317z" />
<glyph unicode="&#xe90b;" glyph-name="minus" d="M819.2 460.8c0-28.314-2.458-51.2-30.771-51.2h-552.858c-28.262 0-30.771 22.886-30.771 51.2s2.509 51.2 30.771 51.2h552.909c28.262 0 30.72-22.886 30.72-51.2z" />
<glyph unicode="&#xe90c;" glyph-name="plus" d="M819.2 460.8c0-28.314-2.458-51.2-30.771-51.2h-225.229v-225.229c0-28.262-22.886-30.771-51.2-30.771s-51.2 2.509-51.2 30.771v225.229h-225.229c-28.262 0-30.771 22.886-30.771 51.2s2.509 51.2 30.771 51.2h225.229v225.229c0 28.314 22.886 30.771 51.2 30.771s51.2-2.458 51.2-30.771v-225.229h225.229c28.314 0 30.771-22.886 30.771-51.2z" />
<glyph unicode="&#xe90d;" glyph-name="quote" horiz-adv-x="1281" d="M535.177 791.44c-75.852-75.852-155.918-181.202-155.918-269.695 0-113.778 151.704-198.058 151.704-332.905 0-147.49-113.778-248.626-257.053-248.626-164.346 0-273.909 160.132-273.909 316.049 0 269.695 168.56 526.749 383.473 678.453 25.284 16.856 46.354 25.284 63.21 25.284s37.926-12.642 58.996-33.712l37.926-50.568c12.642-12.642 16.856-21.070 16.856-37.926-4.214-12.642-8.428-29.498-25.284-46.354zM1259.984 791.44c-75.852-75.852-155.918-181.202-155.918-273.909 0-113.778 151.704-198.058 151.704-332.905 0-147.49-117.992-248.626-261.267-248.626-164.346 0-269.695 160.132-269.695 316.049 0 278.123 168.56 530.963 383.473 682.667 25.284 16.856 46.354 25.284 63.21 25.284s37.926-12.642 54.782-33.712l42.14-50.568c12.642-12.642 16.856-21.070 16.856-37.926-4.214-12.642-8.428-29.498-25.284-46.354z" />
<glyph unicode="&#xea92;" glyph-name="instagram" d="M512 867.8c136.8 0 153-0.6 206.8-3 50-2.2 77-10.6 95-17.6 23.8-9.2 41-20.4 58.8-38.2 18-18 29-35 38.4-58.8 7-18 15.4-45.2 17.6-95 2.4-54 3-70.2 3-206.8s-0.6-153-3-206.8c-2.2-50-10.6-77-17.6-95-9.2-23.8-20.4-41-38.2-58.8-18-18-35-29-58.8-38.4-18-7-45.2-15.4-95-17.6-54-2.4-70.2-3-206.8-3s-153 0.6-206.8 3c-50 2.2-77 10.6-95 17.6-23.8 9.2-41 20.4-58.8 38.2-18 18-29 35-38.4 58.8-7 18-15.4 45.2-17.6 95-2.4 54-3 70.2-3 206.8s0.6 153 3 206.8c2.2 50 10.6 77 17.6 95 9.2 23.8 20.4 41 38.2 58.8 18 18 35 29 58.8 38.4 18 7 45.2 15.4 95 17.6 53.8 2.4 70 3 206.8 3zM512 960c-139 0-156.4-0.6-211-3-54.4-2.4-91.8-11.2-124.2-23.8-33.8-13.2-62.4-30.6-90.8-59.2-28.6-28.4-46-57-59.2-90.6-12.6-32.6-21.4-69.8-23.8-124.2-2.4-54.8-3-72.2-3-211.2s0.6-156.4 3-211c2.4-54.4 11.2-91.8 23.8-124.2 13.2-33.8 30.6-62.4 59.2-90.8 28.4-28.4 57-46 90.6-59 32.6-12.6 69.8-21.4 124.2-23.8 54.6-2.4 72-3 211-3s156.4 0.6 211 3c54.4 2.4 91.8 11.2 124.2 23.8 33.6 13 62.2 30.6 90.6 59s46 57 59 90.6c12.6 32.6 21.4 69.8 23.8 124.2 2.4 54.6 3 72 3 211s-0.6 156.4-3 211c-2.4 54.4-11.2 91.8-23.8 124.2-12.6 34-30 62.6-58.6 91-28.4 28.4-57 46-90.6 59-32.6 12.6-69.8 21.4-124.2 23.8-54.8 2.6-72.2 3.2-211.2 3.2v0zM512 711c-145.2 0-263-117.8-263-263s117.8-263 263-263 263 117.8 263 263c0 145.2-117.8 263-263 263zM512 277.4c-94.2 0-170.6 76.4-170.6 170.6s76.4 170.6 170.6 170.6c94.2 0 170.6-76.4 170.6-170.6s-76.4-170.6-170.6-170.6zM846.8 721.4c0-33.91-27.49-61.4-61.4-61.4s-61.4 27.49-61.4 61.4c0 33.91 27.49 61.4 61.4 61.4s61.4-27.49 61.4-61.4z" />
<glyph unicode="&#xf017;" glyph-name="clock" horiz-adv-x="878" d="M512 640v-256c0-10.286-8-18.286-18.286-18.286h-182.857c-10.286 0-18.286 8-18.286 18.286v36.571c0 10.286 8 18.286 18.286 18.286h128v201.143c0 10.286 8 18.286 18.286 18.286h36.571c10.286 0 18.286-8 18.286-18.286zM749.714 438.857c0 171.429-139.429 310.857-310.857 310.857s-310.857-139.429-310.857-310.857 139.429-310.857 310.857-310.857 310.857 139.429 310.857 310.857zM877.714 438.857c0-242.286-196.571-438.857-438.857-438.857s-438.857 196.571-438.857 438.857 196.571 438.857 438.857 438.857 438.857-196.571 438.857-438.857z" />
<glyph unicode="&#xf041;" glyph-name="map-pin" horiz-adv-x="585" d="M438.857 585.143c0 80.571-65.714 146.286-146.286 146.286s-146.286-65.714-146.286-146.286 65.714-146.286 146.286-146.286 146.286 65.714 146.286 146.286zM585.143 585.143c0-34.857-4-70.857-18.857-102.286l-208-442.286c-12-25.143-38.286-40.571-65.714-40.571s-53.714 15.429-65.143 40.571l-208.571 442.286c-14.857 31.429-18.857 67.429-18.857 102.286 0 161.714 130.857 292.571 292.571 292.571s292.571-130.857 292.571-292.571z" />
<glyph unicode="&#xf073;" glyph-name="calendar" horiz-adv-x="951" d="M73.143 0h164.571v164.571h-164.571v-164.571zM274.286 0h182.857v164.571h-182.857v-164.571zM73.143 201.143h164.571v182.857h-164.571v-182.857zM274.286 201.143h182.857v182.857h-182.857v-182.857zM73.143 420.571h164.571v164.571h-164.571v-164.571zM493.714 0h182.857v164.571h-182.857v-164.571zM274.286 420.571h182.857v164.571h-182.857v-164.571zM713.143 0h164.571v164.571h-164.571v-164.571zM493.714 201.143h182.857v182.857h-182.857v-182.857zM292.571 694.857v164.571c0 9.714-8.571 18.286-18.286 18.286h-36.571c-9.714 0-18.286-8.571-18.286-18.286v-164.571c0-9.714 8.571-18.286 18.286-18.286h36.571c9.714 0 18.286 8.571 18.286 18.286zM713.143 201.143h164.571v182.857h-164.571v-182.857zM493.714 420.571h182.857v164.571h-182.857v-164.571zM713.143 420.571h164.571v164.571h-164.571v-164.571zM731.429 694.857v164.571c0 9.714-8.571 18.286-18.286 18.286h-36.571c-9.714 0-18.286-8.571-18.286-18.286v-164.571c0-9.714 8.571-18.286 18.286-18.286h36.571c9.714 0 18.286 8.571 18.286 18.286zM950.857 731.428v-731.429c0-40-33.143-73.143-73.143-73.143h-804.571c-40 0-73.143 33.143-73.143 73.143v731.429c0 40 33.143 73.143 73.143 73.143h73.143v54.857c0 50.286 41.143 91.429 91.429 91.429h36.571c50.286 0 91.429-41.143 91.429-91.429v-54.857h219.429v54.857c0 50.286 41.143 91.429 91.429 91.429h36.571c50.286 0 91.429-41.143 91.429-91.429v-54.857h73.143c40 0 73.143-33.143 73.143-73.143z" />
<glyph unicode="&#xf099;" glyph-name="twitter" horiz-adv-x="951" d="M925.714 717.714q-38.286-56-92.571-95.429 0.571-8 0.571-24 0-74.286-21.714-148.286t-66-142-105.429-120.286-147.429-83.429-184.571-31.143q-154.857 0-283.429 82.857 20-2.286 44.571-2.286 128.571 0 229.143 78.857-60 1.143-107.429 36.857t-65.143 91.143q18.857-2.857 34.857-2.857 24.571 0 48.571 6.286-64 13.143-106 63.714t-42 117.429v2.286q38.857-21.714 83.429-23.429-37.714 25.143-60 65.714t-22.286 88q0 50.286 25.143 93.143 69.143-85.143 168.286-136.286t212.286-56.857q-4.571 21.714-4.571 42.286 0 76.571 54 130.571t130.571 54q80 0 134.857-58.286 62.286 12 117.143 44.571-21.143-65.714-81.143-101.714 53.143 5.714 106.286 28.571z" />
<glyph unicode="&#xf09a;" glyph-name="facebook" horiz-adv-x="602" d="M548 944v-150.857h-89.714q-49.143 0-66.286-20.571t-17.143-61.714v-108h167.429l-22.286-169.143h-145.143v-433.714h-174.857v433.714h-145.714v169.143h145.714v124.571q0 106.286 59.429 164.857t158.286 58.571q84 0 130.286-6.857z" />
<glyph unicode="&#xf0c9;" glyph-name="navicon" horiz-adv-x="878" d="M877.714 182.857v-73.143q0-14.857-10.857-25.714t-25.714-10.857h-804.571q-14.857 0-25.714 10.857t-10.857 25.714v73.143q0 14.857 10.857 25.714t25.714 10.857h804.571q14.857 0 25.714-10.857t10.857-25.714zM877.714 475.428v-73.143q0-14.857-10.857-25.714t-25.714-10.857h-804.571q-14.857 0-25.714 10.857t-10.857 25.714v73.143q0 14.857 10.857 25.714t25.714 10.857h804.571q14.857 0 25.714-10.857t10.857-25.714zM877.714 768v-73.143q0-14.857-10.857-25.714t-25.714-10.857h-804.571q-14.857 0-25.714 10.857t-10.857 25.714v73.143q0 14.857 10.857 25.714t25.714 10.857h804.571q14.857 0 25.714-10.857t10.857-25.714z" />
<glyph unicode="&#xf0e1;" glyph-name="linkedin" horiz-adv-x="878" d="M199.429 593.714v-566.286h-188.571v566.286h188.571zM211.429 768.571q0.571-41.714-28.857-69.714t-77.429-28h-1.143q-46.857 0-75.429 28t-28.571 69.714q0 42.286 29.429 70t76.857 27.714 76-27.714 29.143-70zM877.714 352v-324.571h-188v302.857q0 60-23.143 94t-72.286 34q-36 0-60.286-19.714t-36.286-48.857q-6.286-17.143-6.286-46.286v-316h-188q1.143 228 1.143 369.714t-0.571 169.143l-0.571 27.429h188v-82.286h-1.143q11.429 18.286 23.429 32t32.286 29.714 49.714 24.857 65.429 8.857q97.714 0 157.143-64.857t59.429-190z" />
<glyph unicode="&#xf104;" glyph-name="angle-left" horiz-adv-x="384" d="M358.286 640q0-7.429-5.714-13.143l-224.571-224.571 224.571-224.571q5.714-5.714 5.714-13.143t-5.714-13.143l-28.571-28.571q-5.714-5.714-13.143-5.714t-13.143 5.714l-266.286 266.286q-5.714 5.714-5.714 13.143t5.714 13.143l266.286 266.286q5.714 5.714 13.143 5.714t13.143-5.714l28.571-28.571q5.714-5.714 5.714-13.143z" />
<glyph unicode="&#xf105;" glyph-name="angle-right" horiz-adv-x="347" d="M340 402.286q0-7.429-5.714-13.143l-266.286-266.286q-5.714-5.714-13.143-5.714t-13.143 5.714l-28.571 28.571q-5.714 5.714-5.714 13.143t5.714 13.143l224.571 224.571-224.571 224.571q-5.714 5.714-5.714 13.143t5.714 13.143l28.571 28.571q5.714 5.714 13.143 5.714t13.143-5.714l266.286-266.286q5.714-5.714 5.714-13.143z" />
<glyph unicode="&#xf106;" glyph-name="angle-up" horiz-adv-x="658" d="M614.286 274.286q0-7.429-5.714-13.143l-28.571-28.571q-5.714-5.714-13.143-5.714t-13.143 5.714l-224.571 224.571-224.571-224.571q-5.714-5.714-13.143-5.714t-13.143 5.714l-28.571 28.571q-5.714 5.714-5.714 13.143t5.714 13.143l266.286 266.286q5.714 5.714 13.143 5.714t13.143-5.714l266.286-266.286q5.714-5.714 5.714-13.143z" />
<glyph unicode="&#xf107;" glyph-name="angle-down" horiz-adv-x="658" d="M614.286 530.286q0-7.429-5.714-13.143l-266.286-266.286q-5.714-5.714-13.143-5.714t-13.143 5.714l-266.286 266.286q-5.714 5.714-5.714 13.143t5.714 13.143l28.571 28.571q5.714 5.714 13.143 5.714t13.143-5.714l224.571-224.571 224.571 224.571q5.714 5.714 13.143 5.714t13.143-5.714l28.571-28.571q5.714-5.714 5.714-13.143z" />
<glyph unicode="&#xf16a;" glyph-name="youtube" d="M731.429 438.857q0 21.143-17.143 30.857l-292.571 182.857q-17.714 11.429-37.143 1.143-18.857-10.286-18.857-32v-365.714q0-21.714 18.857-32 9.143-4.571 17.714-4.571 11.429 0 19.429 5.714l292.571 182.857q17.143 9.714 17.143 30.857zM1024 438.857q0-54.857-0.571-85.714t-4.857-78-12.857-84.286q-9.143-41.714-39.429-70.286t-70.857-33.143q-126.857-14.286-383.429-14.286t-383.429 14.286q-40.571 4.571-71.143 33.143t-39.714 70.286q-8 37.143-12.286 84.286t-4.857 78-0.571 85.714 0.571 85.714 4.857 78 12.857 84.286q9.143 41.714 39.429 70.286t70.857 33.143q126.857 14.286 383.429 14.286t383.429-14.286q40.571-4.571 71.143-33.143t39.714-70.286q8-37.143 12.286-84.286t4.857-78 0.571-85.714z" />
<glyph unicode="&#xf1c1;" glyph-name="file-pdf-o" horiz-adv-x="878" d="M838.857 733.714c21.143-21.143 38.857-63.429 38.857-93.714v-658.286c0-30.286-24.571-54.857-54.857-54.857h-768c-30.286 0-54.857 24.571-54.857 54.857v914.286c0 30.286 24.571 54.857 54.857 54.857h512c30.286 0 72.571-17.714 93.714-38.857zM585.143 873.143v-214.857h214.857c-3.429 9.714-8.571 19.429-12.571 23.429l-178.857 178.857c-4 4-13.714 9.143-23.429 12.571zM804.571 0v585.143h-237.714c-30.286 0-54.857 24.571-54.857 54.857v237.714h-438.857v-877.714h731.429zM510.857 338.857c14.286-11.429 30.286-21.714 48-32 24 2.857 46.286 4 66.857 4 38.286 0 86.857-4.571 101.143-28 4-5.714 7.429-16 1.143-29.714-0.571-0.571-1.143-1.714-1.714-2.286v-0.571c-1.714-10.286-10.286-21.714-40.571-21.714-36.571 0-92 16.571-140 41.714-79.429-8.571-162.857-26.286-224-47.429-58.857-100.571-104-149.714-138.286-149.714-5.714 0-10.857 1.143-16 4l-13.714 6.857c-1.714 0.571-2.286 1.714-3.429 2.857-2.857 2.857-5.143 9.143-3.429 20.571 5.714 26.286 36.571 70.286 107.429 107.429 4.571 2.857 10.286 1.143 13.143-3.429 0.571-0.571 1.143-1.714 1.143-2.286 17.714 29.143 38.286 66.286 61.143 112.571 25.714 51.429 45.714 101.714 59.429 149.714-18.286 62.286-24 126.286-13.714 164 4 14.286 12.571 22.857 24 22.857h12.571c8.571 0 15.429-2.857 20-8.571 6.857-8 8.571-20.571 5.143-38.857-0.571-1.714-1.143-3.429-2.286-4.571 0.571-1.714 0.571-2.857 0.571-4.571v-17.143c-0.571-36-1.143-70.286-8-109.714 20-60 49.714-108.571 83.429-136zM181.714 104c17.143 8 41.714 32.571 78.286 90.286-42.857-33.143-69.714-70.857-78.286-90.286zM409.143 629.714c-5.714-16-5.714-43.429-1.143-75.429 1.714 9.143 2.857 17.714 4 25.143 1.143 9.714 2.857 17.714 4 24.571 0.571 1.714 1.143 2.857 2.286 4.571-0.571 0.571-0.571 1.714-1.143 2.857-0.571 10.286-4 16.571-7.429 20.571 0-1.143-0.571-1.714-0.571-2.286zM338.286 252c50.286 20 106.286 36 162.286 46.286-5.714 4.571-11.429 8.571-16.571 13.143-28 24.571-53.143 58.857-72.571 100.571-10.857-34.857-26.857-72-47.429-112.571-8.571-16-17.143-32-25.714-47.429zM707.429 261.143c-2.857 2.857-17.714 13.714-80 13.714 28-10.286 53.714-16 70.857-16 5.143 0 8 0 10.286 0.571 0 0.571-0.571 1.143-1.143 1.714z" />
</font></defs></svg>