{
	"announcement": [
		{
			"title": "Notice of Rectification Work on Certain Multifunction Devices Used in Markets Outside Japan",
			"date": "Aug 1, 2017 - 01 Jan, 2018",
			"link": "#"
		},
		{
			"title": "Notice of Rectification Work on Certain Multifunction Devices Used in Markets Outside Japan",
			"date": "Aug 2, 2017",
			"link": "#"
		}
	],
	"latest_news": [
		{
			"title": "Fuji Xerox launches Xerox iGen 5 press with a fifth color toner",
			"date": "Mar 7, 2015",
			"link": "#"
		},
		{
			"title": "Fuji Xerox Empowers Youths in Arts and Design through the Digital Print Design Award",
			"date": "Mar 7, 2015",
			"link": "#"
		},
		{
			"title": "SG50 Mass Tree Planting Program: Fuji Xerox contributes toward Singapore's green city of tomorrow",
			"date": "Mar 7, 2015",
			"link": "#"
		},
		{
			"title": "First Win for Fuji Xerox Asia Pacific at the Sustainable Business Awards 2015",
			"date": "Mar 7, 2015",
			"link": "#"
		}
	],
	"upcoming_events": [
		{
			"title": "Lorem ipsum dolor sit amet, consectetuer adipiscing elit.",
			"date": "Mar 7, 2015",
			"link": "#"
		},
		{
			"title": "Aenean commodo ligula eget dolor. Aenean massa.",
			"date": "Mar 7, 2015",
			"link": "#"
		},
		{
			"title": "Cum sociis natoque penatibus et magnis dis parturient montes, nascetur ridiculus mus.",
			"date": "Mar 7, 2015",
			"link": "#"
		},
		{
			"title": "Donec quam felis, ultricies nec, pellentesque eu, pretium quis, sem.",
			"date": "Mar 7, 2015",
			"link": "#"
		}
	]
}
