{
	"banner": {
		"image": "/assets/fuji-xerox/images/1200x440.png"
	},
	"tabs": [
		{
			"__class": "active",
			"name": "Dummy Text Dummy Dummy Text",
			"url": "#"
		},
		{
			"name": "Dummy Text Dummy",
			"url": "#"
		},
		{
			"name": "Dummy Text Dummy Dummy Text",
			"url": "#"
		},
		{
			"name": "Dummy Text Dummy",
			"url": "#"
		},
		{
			"name": "Dummy Text Dummy",
			"url": "#"
		}
	],
	"leftaside": {
		"socialList": [
			{
				"class": "addthis_button_facebook",
				"name": "Facebook",
				"url": "#"
			},
			{
				"class": "addthis_button_twitter",
				"name": "Twitter",
				"url": "#"
			},
			{
				"class": "addthis_button_linkedin",
				"name": "LinkedIn",
				"url": "#"
			},
			{
				"class": "addthis_button_email",
				"name": "Email",
				"url": "#"
			},
			{
				"class": "addthis_button_print",
				"name": "Print",
				"url": "#"
			},
			{
				"class": "addthis_button_compact",
				"name": "More",
				"url": "#"
			}
		]
	},
	"rightaside": {
		"asideBanner": {
			"image": "/assets/fuji-xerox/images/320x140.png",
			"title": "Dummy Text",
			"text": "Lorem ipsum dolor sit amet, consectetur adipisicing elit, sed do eiusmod tempor incididunt ut labore et dolore magna aliqua.",
			"url": "#"
		},
		"aside": {
			"title": "Dummy Text",
			"text": "Lorem ipsum dolor sit amet, consectetur adipisicing elit, sed do eiusmod tempor incididunt ut labore et dolore magna aliqua.",
			"links": [
				{
					"name": "Link 1",
					"url": "#"
				},
				{
					"name": "Link 2",
					"url": "#"
				},
				{
					"name": "Link 3",
					"url": "#"
				},
				{
					"name": "Link 4",
					"url": "#"
				},
				{
					"name": "Link 5",
					"url": "#"
				}
			]
		},
		"quicklinks": [
			{
				"name": "Quick link 1",
				"url": "#"
			},
			{
				"name": "Quick link 2",
				"url": "#"
			},
			{
				"name": "Quick link 3",
				"url": "#"
			},
			{
				"name": "Quick link 4",
				"url": "#"
			}
		]
	}
}
