[
	{
		"name": "Mr. Chee Wai Meng",
		"title": "Vice President, Corporate",
		"company": " Purchasing, Admin & Logistics StarHub",
		"thumbnail": "/assets/fuji-xerox/images/content/events/speakers/speaker_1.jpg",
		"link": "#"
	},
	{
		"name": "Mr. Patrick Wong",
		"title": "Country Manager",
		"company": "GOGOVAN Singapore",
		"thumbnail": "/assets/fuji-xerox/images/content/events/speakers/speaker_2.jpg",
		"link": "#"
	},
	{
		"name": "Ms. Sabrina Tan",
		"title": "Founder and CEO",
		"company": "Skin Inc.",
		"thumbnail": "/assets/fuji-xerox/images/content/events/speakers/speaker_3.jpg",
		"link": "#"
	},
	{
		"name": "Mr. Ebenezer Heng",
		"title": "Principal Consultant",
		"company": "Top Advertising Pte Ltd",
		"thumbnail": "/assets/fuji-xerox/images/content/events/speakers/speaker_4.jpg",
		"link": "#"
	},
	{
		"name": "Mr. Jeffrey Protheroe",
		"title": "Group CEO and Managing Director",
		"company": "Potius",
		"thumbnail": "/assets/fuji-xerox/images/content/events/speakers/speaker_5.jpg",
		"link": "#"
	},
	{
		"name": "Ms. Heidi Tan",
		"title": "Founder and Head Chef",
		"company": "FLOR Patisserie",
		"thumbnail": "/assets/fuji-xerox/images/content/events/speakers/speaker_6.jpg",
		"link": "#"
	},
	{
		"name": "Mr. Ng Voon Seong",
		"title": "Tax Manager",
		"company": "BDO Tax Advisory",
		"thumbnail": "/assets/fuji-xerox/images/content/events/speakers/speaker_7.jpg",
		"link": "#"
	},
	{
		"name": "Mr. Rajesh Dora",
		"title": "Application Sales Manager",
		"company": "Esko",
		"thumbnail": "/assets/fuji-xerox/images/content/events/speakers/speaker_8.jpg",
		"link": "#"
	},
	{
		"name": "Mr. Nathan Symes",
		"title": "General Manager, Regional Channel Sales & Business Development",
		"company": "Fuji Xerox Asia Pacific",
		"thumbnail": "/assets/fuji-xerox/images/content/events/speakers/speaker_9.jpg",
		"link": "#"
	},
	{
		"name": "Mr. Janne Kalervo Iivonen",
		"title": "Regional Principal",
		"company": "Fuji Xerox Asia Pacific",
		"thumbnail": "/assets/fuji-xerox/images/content/events/speakers/speaker_10.jpg",
		"link": "#"
	},
	{
		"name": "Ms. Jyotsna Jammi",
		"title": "Service Development Manager (Campaign Management) ",
		"company": "Fuji Xerox Asia Pacific",
		"thumbnail": "/assets/fuji-xerox/images/content/events/speakers/speaker_11.jpg",
		"link": "#"
	}
]