{
	"banner": {
		"image": "/assets/fuji-xerox/images/1200x440.png",
		"textbox": false,
		"title1": "Heading 1",
		"title2": "Heading 2",
		"text": "Lorem ipsum dolor sit amet, consectetur adipisicing elit, sed do eiusmod tempor incididunt ut labore et dolore magna aliqua.",
		"label": "More",
		"url": "#",
		"links": [
			{
				"name": "Hyperlink 1",
				"url": "#"
			},
			{
				"name": "Hyperlink 2",
				"url": "#"
			},
			{
				"name": "Hyperlink 3",
				"url": "#"
			},
			{
				"name": "Hyperlink 4",
				"url": "#"
			}
		]
	}
}
