{
	"firstrow": [
		{
			"__class": "col-sm-3",
			"image": "/assets/fuji-xerox/images/969x686.png",
			"title": "Title 1",
			"text": "Lorem ipsum dolor sit amet, consectetur adipisicing elit.",
			"url": "#"
		},
		{
			"__class": "col-sm-3",
			"image": "/assets/fuji-xerox/images/969x686.png",
			"title": "Title 2",
			"text": "Lorem ipsum dolor sit amet, consectetur adipisicing elit.",
			"url": "#"
		},
		{
			"__class": "col-sm-6",
			"image": "/assets/fuji-xerox/images/969x686.png",
			"title": "Title 3",
			"text": "Lorem ipsum dolor sit amet, consectetur adipisicing elit.",
			"url": "#"
		}
	],
	"secondrow": [
		{
			"__class": "col-sm-3 video",
			"image": "/assets/fuji-xerox/images/969x686.png",
			"title": "Video",
			"text": "Lorem ipsum dolor sit amet, consectetur adipisicing elit.",
			"url": "https://www.youtube.com/embed/qtS3rz31KII",
			"video": true
		},
		{
			"__class": "col-sm-6 resource",
			"image": "/assets/fuji-xerox/images/969x686.png",
			"title": "Resource",
			"text": "Lorem ipsum dolor sit amet, consectetur adipisicing elit.",
			"url": "#",
			"resource": true
		}
	]
}
