<svg width="18" height="28" viewBox="0 0 18 28" fill="none" xmlns="http://www.w3.org/2000/svg">
<g clip-path="url(#clip0)">
<path d="M14.3415 1.31463C14.3244 1.26341 14.3244 1.22927 14.3244 1.17805C14.1707 0.460976 13.5902 0 12.8049 0C9.04878 0 5.29268 0 1.53659 0C1.48537 0 1.43415 0 1.36585 0C0.580488 0.0512195 0 0.665854 0 1.45122C0 2.32195 0 3.20976 0 4.08049H14.3415V1.31463Z" fill="white"/>
<path d="M6.31707 20.3854L5.46341 19.4805C5.32683 19.3269 4.83171 18.7976 4.83171 18.7976L4.43902 18.3879L4.74634 17.9098C5.13902 17.2952 5.63415 17.1586 5.95854 17.1586C6.19756 17.1586 6.43659 17.2269 6.65854 17.3464C7.05122 17.5513 7.37561 17.8244 7.68293 18.0805L7.73415 18.1318C7.92195 18.2854 8.09268 18.4391 8.26342 18.5927C8.45122 18.7635 8.63902 18.9342 8.80976 19.0708C8.9122 19.1391 9.03171 19.2074 9.13415 19.2244C9.15122 19.2244 9.16829 19.2244 9.18537 19.2244C9.32195 19.2244 9.49268 19.0537 9.49268 18.8147C9.49268 18.3708 9.49268 17.9269 9.49268 17.483C9.49268 17.2781 9.49268 17.0732 9.49268 16.8683V15.2122C9.49268 13.7269 9.49268 12.1732 9.49268 10.6708C9.49268 10.3122 9.6122 9.98786 9.85122 9.76591C10.0732 9.52688 10.3976 9.40737 10.739 9.40737C10.9268 9.40737 11.0976 9.44152 11.2683 9.50981C11.6951 9.69761 11.9683 10.0732 11.9854 10.5342C11.9854 10.6196 11.9854 10.7049 11.9854 10.7903V14.2561C12.0537 14.2049 12.139 14.1537 12.2073 14.1196C12.4122 14.0342 12.6171 13.983 12.822 13.983C13.1122 13.983 13.3854 14.0854 13.6073 14.2732C13.6927 14.3415 13.761 14.4269 13.8122 14.5122C13.9317 14.3244 14.1195 14.1879 14.3244 14.1025V5.05371H0C0 10.5342 0 16.0318 0 21.5122H7.39268C7.03415 21.1366 6.67561 20.761 6.31707 20.3854ZM8.21219 6.16347H10.2268V8.19517H8.21219V6.16347ZM5.13902 6.14639H7.15366V8.1781H5.13902V6.14639ZM2.04878 6.16347H4.08049V8.1781H2.04878V6.16347ZM2.06585 9.23664H6.14634V10.2269H2.06585V9.23664ZM2.06585 11.2854H7.15366V12.2927H2.06585V11.2854Z" fill="white"/>
<path d="M10.5341 26.6341C10.5512 26.0707 10.5341 25.4902 10.5341 24.9439V24.8756C9.8 24.0902 9.04878 23.2878 8.31463 22.5024H0C0 23.339 0 24.1756 0 24.9951C0 25.9341 0.7 26.6341 1.62195 26.6341C1.87805 26.6341 2.11707 26.6341 2.37317 26.6341H10.5341Z" fill="white"/>
<path d="M5.36108 18.3024C5.61718 17.9097 5.9245 17.7732 6.33425 17.9951C6.67572 18.1829 7.00011 18.439 7.30743 18.6951C7.68304 19.0024 8.0245 19.3439 8.40011 19.6512C8.57084 19.7878 8.79279 19.9073 9.01474 19.9585C9.64645 20.0951 10.2269 19.5658 10.244 18.8488C10.244 18.2 10.244 17.5512 10.244 16.9024C10.244 14.8366 10.244 12.7707 10.244 10.6878C10.244 10.1927 10.705 10.0732 10.9952 10.1927C11.166 10.261 11.2684 10.3975 11.2855 10.5853C11.2855 10.6536 11.2855 10.739 11.2855 10.8073C11.2855 12.8732 11.2855 14.939 11.2855 17.0219C11.2855 17.2951 11.405 17.4658 11.6269 17.5512C11.8147 17.6195 12.0708 17.5683 12.1733 17.3975C12.2416 17.2951 12.2928 17.1414 12.2928 17.0219C12.3099 16.4414 12.2928 15.861 12.2928 15.2805C12.2928 15.0927 12.3269 14.9049 12.5147 14.8195C12.7367 14.7171 12.9757 14.7171 13.1465 14.8707C13.2318 14.9561 13.3001 15.1097 13.3001 15.2463C13.3172 15.8439 13.3001 16.4414 13.3001 17.0219C13.3001 17.3634 13.505 17.5853 13.8123 17.5853C14.1196 17.5853 14.3245 17.3634 14.3245 17.0219C14.3245 16.4414 14.3245 15.861 14.3245 15.2805C14.3245 14.9561 14.5123 14.7683 14.8538 14.7683C15.1782 14.7683 15.3489 14.9561 15.3489 15.2805C15.3489 15.8439 15.3489 16.4073 15.3489 16.9878C15.3489 17.3805 15.5367 17.5853 15.8611 17.6024C16.1855 17.6024 16.3733 17.3805 16.3733 17.0049C16.3733 16.6975 16.3733 16.4073 16.3733 16.1C16.3733 15.7927 16.5611 15.639 16.8855 15.639C17.1928 15.639 17.3977 15.8097 17.4147 16.1C17.4147 17.3634 17.4318 18.6097 17.3977 19.8732C17.3806 20.6414 17.1586 21.3756 16.8855 22.0927C16.5952 22.8951 16.2538 23.6805 15.9465 24.4658C15.9123 24.5512 15.8782 24.6536 15.8782 24.7561C15.8782 25.4561 15.8611 26.1561 15.8782 26.839C15.8782 27.1292 15.7757 27.3171 15.5538 27.4707C15.0416 27.8292 14.444 27.9658 13.8294 28C13.1465 28.0341 12.4635 27.9488 11.8489 27.6414C11.7465 27.5902 11.6611 27.539 11.5757 27.4707C11.3708 27.3171 11.2513 27.1292 11.2513 26.8561C11.2684 26.1561 11.2684 25.4561 11.2513 24.7732C11.2513 24.6878 11.2172 24.5853 11.166 24.5171C9.44157 22.6732 7.71718 20.8463 5.99279 19.0024C5.78791 18.7634 5.58304 18.5244 5.36108 18.3024Z" fill="white"/>
</g>
<defs>
<clipPath id="clip0">
<rect width="17.4146" height="28" fill="white"/>
</clipPath>
</defs>
</svg>
