<svg width="23" height="15" viewBox="0 0 23 15" fill="none" xmlns="http://www.w3.org/2000/svg">
<path d="M0.643311 0C7.89994 0 15.1114 0 22.3568 0C18.7341 3.08096 15.1227 6.15064 11.5 9.2316C7.88865 6.16192 4.28855 3.09225 0.643311 0Z" fill="white"/>
<path d="M9.00593 8.02405C9.84106 8.73504 10.6649 9.43475 11.5 10.1457C12.3352 9.43475 13.159 8.73504 13.9942 8.02405C16.8043 10.3037 19.6144 12.5834 22.4583 14.8744C15.1453 14.8744 7.86609 14.8744 0.541748 14.8744C3.37443 12.5834 6.18454 10.315 9.00593 8.02405Z" fill="white"/>
<path d="M8.47547 7.57262C5.64279 9.86359 2.83268 12.1433 0 14.4343C0 9.72817 0 5.05594 0 0.349854C2.83268 2.75368 5.64279 5.15751 8.47547 7.57262Z" fill="white"/>
<path d="M22.9999 14.4343C20.1672 12.1433 17.3571 9.86359 14.5244 7.57262C17.3458 5.16879 20.1672 2.76497 22.9999 0.349854C22.9999 5.04465 22.9999 9.72817 22.9999 14.4343Z" fill="white"/>
</svg>
